   1 0000               # File: $Id: tents.asm,v 1.5 2013/02/12 18:33:21 exs6350 Exp exs6350 $
   2 0000               # Author: Ernesto Soltero
   3 0000               # 
   4 0000               # Description: The main program file that solves the 
   5 0000               #              tent puzzle. This reads in the file and 
   6 0000               #              prints out the initial puzzle and the 
   7 0000               #              final solved puzzle.
   8 0000               # Revisions: $Log: tents.asm,v $
   9 0000               # Revisions: Revision 1.5  2013/02/12 18:33:21  exs6350
  10 0000               # Revisions: added more comments.
  11 0000               # Revisions:
  12 0000               # Revisions: Revision 1.4  2013/02/10 06:17:28  exs6350
  13 0000               # Revisions: File input works correctlty tested.
  14 0000               # Revisions:
  15 0000               # Revisions: Revision 1.3  2013/02/08 05:25:10  exs6350
  16 0000               # Revisions: added error messages
  17 0000               # Revisions:
  18 0000               # Revisions: Revision 1.1  2013/02/08 04:21:45  exs6350
  19 0000               # Revisions: Initial revision
  20 0000               # Revisions:
  21 0000               
  22 0000               #constants
  23 0000               READ_INT = 5
  24 0000               PRINT_STRING = 4
  25 0000               EXIT = 10
  26 0000               
  27 0000               	.data
  28 0000               	.align 2
  29 0000               
  30 0000               size_of_board:
  31 0000 00000000		.word 0
  32 0004               
  33 0004               tree_limit_col:    
  34 0004 00000000		.space 48
          00000000
          00000000
          00000000
          00000000
          00000000
  35 0034               
  36 0034               tree_limit_row:
  37 0034 00000000		.space 48
          00000000
          00000000
          00000000
          00000000
          00000000
  38 0064               
  39 0064               board:
  40 0064 00000000		.space	144
          00000000
          00000000
          00000000
          00000000
          00000000
  41 00f4               
  42 00f4               num_trees:
  43 00f4 00000000		.word 0
  44 00f8               
  45 00f8               
  46 0000               	.text
  47 0000               	.align 2
  48 0000               	.globl main
  49 0000               	.globl print_banner
  50 0000               	.globl tree
  51 0000               	.globl print_board
  52 0000               	.globl print_error
  53 0000               	.globl dot
  54 0000               	.globl final_puzzle
  55 0000               	.globl newline
  56 0000               	.globl solve
  57 0000               	.globl impossible
  58 0000               	.globl initial_puzz
  59 0000               	
  60 0000               main:
  61 0000 23BDFFE4		addi	$sp, $sp, -28
  62 0004 AFB00000		sw	$s0, 0($sp)
  63 0008 AFB10004		sw	$s1, 4($sp)
  64 000c AFB20008		sw	$s2, 8($sp)
  65 0010 AFB3000C		sw	$s3, 12($sp)
  66 0014 AFB40010		sw	$s4, 16($sp)
  67 0018 AFB50014		sw	$s5, 20($sp)
  68 001c AFBF0018		sw	$ra, 24($sp)
  69 0020 0C000000		jal	print_banner
  70 0024 0C00003A		jal	read
  71 0028 0C000000		jal	initial_puzz
  72 002c 3C040000		la	$a0, tree_limit_row
     0030 34840000
  73 0034 3C070000		la	$a3, tree_limit_col
     0038 34E70000
  74 003c 3C050000		la	$a1, board
     0040 34A50000
  75 0044 3C060000		la	$a2, size_of_board
     0048 34C60000
  76 004c 0C000000		jal	print_board
  77 0050 3C0D0000		la	$t5, tree_limit_row
     0054 35AD0000
  78 0058 3C0E0000		la	$t6, tree_limit_col
     005c 35CE0000
  79 0060 8CCA0000		lw	$t2, 0($a2)
  80 0064 340B0000		li	$t3, 0
  81 0068 340C0000		li	$t4, 0
  82 006c               	
  83 006c               
  84 006c               #If the limits are 0 then this is
  85 006c               #already a final solution so just
  86 006c               #return.
  87 006c               #############################################
  88 006c               check_board1:
  89 006c 114B0005		beq	$t2, $t3, check_board2		#check this
  90 0070 8DAF0000		lw	$t7, 0($t5)
  91 0074 15E00018		bne	$t7, $zero, continue
  92 0078 216B0001		addi	$t3, $t3, 1
  93 007c 21AD0004		addi	$t5, $t5, 4
  94 0080 0800001B		j	check_board1
  95 0084               
  96 0084               check_board2:
  97 0084 114C0005		beq	$t2, $t4, solve_first
  98 0088 8DCF0000		lw	$t7, 0($t6)
  99 008c 15E00012		bne	$t7, $zero, continue
 100 0090 218C0001		addi	$t4, $t4, 1
 101 0094 21CE0004		addi	$t6, $t6, 4
 102 0098 08000021		j	check_board2
 103 009c               
 104 009c               solve_first:
 105 009c 34020004		li	$v0, PRINT_STRING
 106 00a0 3C040000		la	$a0, final_puzzle
     00a4 34840000
 107 00a8 0000000C		syscall
 108 00ac 3C040000		la	$a0, tree_limit_row
     00b0 34840000
 109 00b4 3C050000		la	$a1, board
     00b8 34A50000
 110 00bc 3C060000		la	$a2, size_of_board
     00c0 34C60000
 111 00c4 3C070000		la	$a3, tree_limit_col
     00c8 34E70000
 112 00cc 0C000000		jal	print_board
 113 00d0 3402000A		li	$v0, EXIT
 114 00d4 0000000C		syscall
 115 00d8               ############################################
 116 00d8               
 117 00d8               
 118 00d8               
 119 00d8               
 120 00d8               #part of main if final board isnt initial board
 121 00d8               ############################################
 122 00d8               continue:
 123 00d8 0C000000		jal	solve
 124 00dc 0C000000		jal	impossible
 125 00e0 3402000A		li	$v0, EXIT
 126 00e4 0000000C		syscall
 127 00e8               
 128 00e8               #############################################
 129 00e8               
 130 00e8               
 131 00e8               
 132 00e8               #Reads in the board and initializes it
 133 00e8               #
 134 00e8               ###########################################
 135 00e8               read:
 136 00e8 3C100000		la	$s0, board
     00ec 36100000
 137 00f0 3C110000		la	$s1, size_of_board
     00f4 36310000
 138 00f8 3C120000		la	$s2, tree_limit_col
     00fc 36520000
 139 0100 3C130000		la	$s3, tree_limit_row
     0104 36730000
 140 0108 340A0000		li	$t2, 0
 141 010c 340B0000		li	$t3, 0
 142 0110 340C0000		li	$t4, 0
 143 0114 340D0000		li	$t5, 0
 144 0118 340E0000		li	$t6, 0
 145 011c 340F0000		li	$t7, 0
 146 0120 34180000		li	$t8, 0
 147 0124 34190000		li	$t9, 0
 148 0128               
 149 0128               readfile:
 150 0128               
 151 0128 1140000C		beq	$t2, $zero, make_size
 152 012c 11710015		beq	$t3, $s1, initialize_board
 153 0130 34020005		li	$v0, READ_INT
 154 0134 0000000C		syscall
 155 0138 00406821		move 	$t5, $v0
 156 013c AE4D0000		sw	$t5, 0($s2)
 157 0140 29AE0000		slti	$t6, $t5, 0
 158 0144 15C00060		bne	$t6, $zero, error_2
 159 0148 022D702A		sgt	$t6, $t5, $s1
 160 014c 15C0005E		bne	$t6, $zero, error_2
 161 0150 22520004		addi	$s2, $s2, 4
 162 0154 216B0001		addi	$t3, $t3, 1
 163 0158 0800004A		j	readfile
 164 015c               	
 165 015c               make_size:
 166 015c               
 167 015c 34020005		li	$v0, READ_INT
 168 0160 0000000C		syscall
 169 0164 284E0002		slti	$t6, $v0, 2
 170 0168 15C00055		bne	$t6, $zero, error_1
 171 016c 284E000C		slti	$t6, $v0, 12
 172 0170 11C00053		beq	$t6, $zero, error_1
 173 0174 AE220000		sw	$v0, 0($s1)
 174 0178 00405021		move	$t2, $v0
 175 017c 01408821		move	$s1, $t2
 176 0180 0800004A		j	readfile
 177 0184               
 178 0184               initialize_board:
 179 0184 1239000B		beq	$s1, $t9, col_limit
 180 0188 12380007		beq	$s1, $t8, next_col
 181 018c 3C0E0000		la	$t6, dot
     0190 35CE0000
 182 0194 81CF0000		lb	$t7, 0($t6)
 183 0198 A20F0000		sb	$t7, 0($s0)
 184 019c 22100001		addi	$s0, $s0, 1
 185 01a0 23180001		addi	$t8, $t8, 1
 186 01a4 08000061		j	initialize_board
 187 01a8               
 188 01a8               next_col:
 189 01a8 34180000		li	$t8, 0
 190 01ac 23390001		addi	$t9, $t9, 1
 191 01b0 08000061		j	initialize_board
 192 01b4               
 193 01b4               col_limit:
 194 01b4               
 195 01b4 122C000B		beq	$s1, $t4, num_tree
 196 01b8 34020005		li	$v0, READ_INT
 197 01bc 0000000C		syscall
 198 01c0 00406821		move	$t5, $v0
 199 01c4 AE6D0000		sw	$t5, 0($s3)
 200 01c8 29AE0000		slti	$t6, $t5, 0
 201 01cc 15C0003E		bne	$t6, $zero, error_2
 202 01d0 022D702A		sgt	$t6, $t5, $s1
 203 01d4 15C0003C		bne	$t6, $zero, error_2
 204 01d8 218C0001		addi	$t4, $t4, 1
 205 01dc 22730004		addi	$s3, $s3, 4
 206 01e0 0800006D		j	col_limit
 207 01e4               
 208 01e4               num_tree:
 209 01e4 34020005		li	$v0, READ_INT
 210 01e8 0000000C		syscall
 211 01ec 00005021		move	$t2, $zero
 212 01f0 3C0A0000		la	$t2, num_trees
     01f4 354A0000
 213 01f8 0040702A		slt	$t6, $v0, $zero
 214 01fc 1DC00034		bgtz	$t6, error_3
 215 0200 AD420000		sw	$v0, 0($t2)
 216 0204 00406821		move	$t5, $v0
 217 0208 00005821		move	$t3, $zero
 218 020c 00005021		move	$t2, $zero
 219 0210 00006021		move	$t4, $zero
 220 0214 23BDFFFC		addi	$sp, $sp, -4
 221 0218 AFBF0000		sw	$ra, 0($sp)
 222 021c               	
 223 021c               read_tree:
 224 021c 11AB001E		beq	$t5, $t3, done_read
 225 0220 34020005		li	$v0, READ_INT
 226 0224 0000000C		syscall
 227 0228 00402021		move	$a0, $v0
 228 022c 288E0000		slti	$t6, $a0, 0
 229 0230 15C00029		bne	$t6, $zero, error_4
 230 0234 16240002		sge	$t6, $a0, $s1
     0238 340E0001
     023c 10000001
     0240 0224702A
 231 0244 15C00024		bne	$t6, $zero, error_4
 232 0248 34020005		li	$v0, READ_INT
 233 024c 0000000C		syscall
 234 0250 00402821		move	$a1, $v0
 235 0254 28AE0000		slti	$t6, $a1, 0
 236 0258 15C0001F		bne	$t6, $zero, error_4
 237 025c 16250002		sge	$t6, $a1, $s1
     0260 340E0001
     0264 10000001
     0268 0225702A
 238 026c 15C0001A		bne	$t6, $zero, error_4
 239 0270 0C0000A9		jal	formula
 240 0274 3C180000		la	$t8, tree
     0278 37180000
 241 027c 83190000		lb	$t9, 0($t8)
 242 0280 3C090000		la	$t1, board
     0284 35290000
 243 0288 01224820		add	$t1, $t1, $v0
 244 028c A1390000		sb	$t9, 0($t1)
 245 0290 216B0001		addi	$t3, $t3, 1
 246 0294 08000087		j	read_tree
 247 0298               
 248 0298               done_read:
 249 0298 8FBF0000		lw	$ra, 0($sp)
 250 029c 23BD0004		addi	$sp, $sp, 4
 251 02a0 03E00008		jr	$ra		#retore the caller
 252 02a4               
 253 02a4               ################################################
 254 02a4               
 255 02a4               
 256 02a4               #calculates the position to put the trees. This
 257 02a4               #is also used to convert from row/col to an offset.
 258 02a4               # a0 - row
 259 02a4               # a1 - col
 260 02a4               # v0 - result
 261 02a4               ################################################
 262 02a4               formula:
 263 02a4               
 264 02a4 10800004		beq	$a0, $zero, return_col
 265 02a8 00910018		mult	$a0, $s1
 266 02ac 00007812		mflo	$t7
 267 02b0 01E51020		add	$v0, $t7, $a1
 268 02b4 03E00008		jr	$ra
 269 02b8               
 270 02b8               return_col:
 271 02b8 00A01021		move	$v0, $a1
 272 02bc 03E00008		jr	$ra
 273 02c0               #################################################
 274 02c0               
 275 02c0               #invalid board size
 276 02c0               error_1:
 277 02c0 34040001		li	$a0, 1
 278 02c4 08000000		j	print_error
 279 02c8               
 280 02c8               #invalid tree limit 
 281 02c8               error_2:
 282 02c8 34040002		li	$a0, 2
 283 02cc 08000000		j	print_error
 284 02d0               
 285 02d0               #invalid num of trees 
 286 02d0               error_3:
 287 02d0 34040003		li	$a0, 3
 288 02d4 08000000		j	print_error
 289 02d8               
 290 02d8               #Illegal tree location
 291 02d8               error_4:
 292 02d8 34040004		li	$a0, 4
 293 02dc 08000000		j	print_error


EXIT              = 0000000A   
PRINT_STRING      = 00000004   
READ_INT          = 00000005   
board               00000064 R  data 
check_board1        0000006C R  text 
check_board2        00000084 R  text 
col_limit           000001B4 R  text 
continue            000000D8 R  text 
done_read           00000298 R  text 
dot                 ******** XG
error_1             000002C0 R  text 
error_2             000002C8 R  text 
error_3             000002D0 R  text 
error_4             000002D8 R  text 
final_puzzle        ******** XG
formula             000002A4 R  text 
impossible          ******** XG
initial_puzz        ******** XG
initialize_board    00000184 R  text 
main                00000000 RG text 
make_size           0000015C R  text 
newline             ******** XG
next_col            000001A8 R  text 
num_tree            000001E4 R  text 
num_trees           000000F4 R  data 
print_banner        ******** XG
print_board         ******** XG
print_error         ******** XG
read                000000E8 R  text 
read_tree           0000021C R  text 
readfile            00000128 R  text 
return_col          000002B8 R  text 
size_of_board       00000000 R  data 
solve               ******** XG
solve_first         0000009C R  text 
tree                ******** XG
tree_limit_col      00000004 R  data 
tree_limit_row      00000034 R  data 
